(dp0
S'https://api.flickr.com/services/rest/?per_page=5&format=json&method=flickr.photos.search&tag_mode=all&tags=sunset'
p1
VjsonFlickrApi({"photos":{"page":1,"pages":81206,"perpage":5,"total":"406027","photo":[{"id":"28454492113","owner":"94379915@N08","secret":"1e146a6478","server":"8422","farm":9,"title":"Naxos","ispublic":1,"isfriend":0,"isfamily":0},{"id":"28785964690","owner":"144506732@N07","secret":"8c7a599cb4","server":"8456","farm":9,"title":"Impending","ispublic":1,"isfriend":0,"isfamily":0},{"id":"28785942950","owner":"20908239@N00","secret":"e7cace8d1e","server":"8058","farm":9,"title":"Sunset at Oka river","ispublic":1,"isfriend":0,"isfamily":0},{"id":"29072239255","owner":"88518371@N02","secret":"962d852303","server":"8192","farm":9,"title":"Beautiful sunset in Haarlem","ispublic":1,"isfriend":0,"isfamily":0},{"id":"28785957030","owner":"144506732@N07","secret":"81f377ec57","server":"8405","farm":9,"title":"Kuhasalo III","ispublic":1,"isfriend":0,"isfamily":0}]},"stat":"ok"})
p2
sS'https://api.flickr.com/services/rest/?per_page=50&format=json&method=flickr.photos.search&tag_mode=all&tags=sunset'
p3
VjsonFlickrApi({"photos":{"page":1,"pages":8592,"perpage":50,"total":"429568","photo":[{"id":"28455203753","owner":"24295111@N07","secret":"75c86eef28","server":"7749","farm":8,"title":"August 2016 almost sundown","ispublic":1,"isfriend":0,"isfamily":0},{"id":"28452199214","owner":"141467830@N02","secret":"2a4e94c013","server":"8464","farm":9,"title":"Landscape around Cowling #3.jpg","ispublic":1,"isfriend":0,"isfamily":0},{"id":"28455300413","owner":"141548338@N08","secret":"3144bd29ff","server":"8511","farm":9,"title":"Sunset in Berlin","ispublic":1,"isfriend":0,"isfamily":0},{"id":"28996504811","owner":"111671163@N05","secret":"ddde643836","server":"8488","farm":9,"title":"Derwentwater Sunset","ispublic":1,"isfriend":0,"isfamily":0},{"id":"28967654842","owner":"114709826@N06","secret":"bc0a1f20fb","server":"8212","farm":9,"title":"166\u005c/365 Sunset","ispublic":1,"isfriend":0,"isfamily":0},{"id":"28996492451","owner":"46172501@N05","secret":"c4776a56c2","server":"8289","farm":9,"title":"First light in Barreirinhas","ispublic":1,"isfriend":0,"isfamily":0},{"id":"28452068514","owner":"53464578@N08","secret":"f92c3d5b3c","server":"8343","farm":9,"title":"Lagos","ispublic":1,"isfriend":0,"isfamily":0},{"id":"29040014726","owner":"127249325@N08","secret":"97911ef414","server":"8448","farm":9,"title":"P1010067","ispublic":1,"isfriend":0,"isfamily":0},{"id":"28967578612","owner":"53464578@N08","secret":"a9361abf1a","server":"8494","farm":9,"title":"Praia do Alvor","ispublic":1,"isfriend":0,"isfamily":0},{"id":"28967577582","owner":"53464578@N08","secret":"bdd374d655","server":"8237","farm":9,"title":"Praia do Alvor","ispublic":1,"isfriend":0,"isfamily":0},{"id":"28452054664","owner":"53464578@N08","secret":"4495e6a31b","server":"7732","farm":8,"title":"Sunset at Algarve","ispublic":1,"isfriend":0,"isfamily":0},{"id":"28967526602","owner":"77546111@N08","secret":"cf8705003d","server":"8180","farm":9,"title":"Coming In from Fishing In the Sunset","ispublic":1,"isfriend":0,"isfamily":0},{"id":"28996345431","owner":"77546111@N08","secret":"3b396aa232","server":"7639","farm":8,"title":"Sunset Over the Forest","ispublic":1,"isfriend":0,"isfamily":0},{"id":"28455041313","owner":"91423454@N06","secret":"0d0ae2fb2f","server":"8462","farm":9,"title":"Sunset at South Stack","ispublic":1,"isfriend":0,"isfamily":0},{"id":"28455009673","owner":"112767719@N03","secret":"f49b224e37","server":"8086","farm":9,"title":"P1020723 copie","ispublic":1,"isfriend":0,"isfamily":0},{"id":"28996260001","owner":"112767719@N03","secret":"0460205a10","server":"7477","farm":8,"title":"_DSC0131 copie","ispublic":1,"isfriend":0,"isfamily":0},{"id":"28452063314","owner":"142985458@N03","secret":"fa1a574581","server":"8487","farm":9,"title":"Summer nights  #sunset #goldenhour #goldenlight #tree #nature #sun","ispublic":1,"isfriend":0,"isfamily":0},{"id":"28967579242","owner":"94340476@N04","secret":"de0e8e730f","server":"8234","farm":9,"title":"Skarfjell sunset","ispublic":1,"isfriend":0,"isfamily":0},{"id":"28786576090","owner":"29696440@N05","secret":"6bab850c31","server":"8236","farm":9,"title":"Sun Streaks","ispublic":1,"isfriend":0,"isfamily":0},{"id":"29072891215","owner":"30803583@N03","secret":"88652527a9","server":"8133","farm":9,"title":"Majella Madre","ispublic":1,"isfriend":0,"isfamily":0},{"id":"28967524452","owner":"136437716@N02","secret":"53e6fe0ac4","server":"8249","farm":9,"title":"","ispublic":1,"isfriend":0,"isfamily":0},{"id":"29072849485","owner":"127905703@N07","secret":"79ae361620","server":"8224","farm":9,"title":"Port of Hamburg","ispublic":1,"isfriend":0,"isfamily":0},{"id":"29072838445","owner":"75405152@N08","secret":"e3e763e27e","server":"8502","farm":9,"title":"IMG_5520","ispublic":1,"isfriend":0,"isfamily":0},{"id":"28451960744","owner":"116303817@N03","secret":"8432b75bf9","server":"8883","farm":9,"title":"Red sky at night","ispublic":1,"isfriend":0,"isfamily":0},{"id":"29039890756","owner":"139885573@N05","secret":"9f4f354a9d","server":"8391","farm":9,"title":"Sunset at Alex","ispublic":1,"isfriend":0,"isfamily":0},{"id":"28451937594","owner":"126109047@N05","secret":"f83991c366","server":"8181","farm":9,"title":"Olympic champions","ispublic":1,"isfriend":0,"isfamily":0},{"id":"29039881626","owner":"25002527@N05","secret":"e13801676f","server":"7467","farm":8,"title":"Alien death pods","ispublic":1,"isfriend":0,"isfamily":0},{"id":"28451927114","owner":"63805593@N04","secret":"f348611afe","server":"8875","farm":9,"title":"Clam Bayou Park","ispublic":1,"isfriend":0,"isfamily":0},{"id":"28967451682","owner":"63805593@N04","secret":"d17656c680","server":"8822","farm":9,"title":"Clam Bayou Park","ispublic":1,"isfriend":0,"isfamily":0},{"id":"29072791195","owner":"135308902@N05","secret":"5806bfe920","server":"8377","farm":9,"title":"Wheaty","ispublic":1,"isfriend":0,"isfamily":0},{"id":"28996299441","owner":"63805593@N04","secret":"06cf401ee8","server":"7630","farm":8,"title":"Clam Bayou Park","ispublic":1,"isfriend":0,"isfamily":0},{"id":"28451906454","owner":"63805593@N04","secret":"fba1777d47","server":"8431","farm":9,"title":"Clam Bayou Park","ispublic":1,"isfriend":0,"isfamily":0},{"id":"28451901984","owner":"131355652@N03","secret":"03b6835de5","server":"8502","farm":9,"title":"DSC_1827-Edit-2FAA","ispublic":1,"isfriend":0,"isfamily":0},{"id":"29072775575","owner":"63805593@N04","secret":"1f7b13aed4","server":"8158","farm":9,"title":"Clam Bayou Park","ispublic":1,"isfriend":0,"isfamily":0},{"id":"28451895004","owner":"63805593@N04","secret":"1a85bc86e0","server":"8549","farm":9,"title":"Clam Bayou Park","ispublic":1,"isfriend":0,"isfamily":0},{"id":"28786449560","owner":"63805593@N04","secret":"5124456b7b","server":"8220","farm":9,"title":"Clam Bayou Park","ispublic":1,"isfriend":0,"isfamily":0},{"id":"28996292631","owner":"72876267@N07","secret":"d12d23792b","server":"8209","farm":9,"title":"Full Moon Rising","ispublic":1,"isfriend":0,"isfamily":0},{"id":"28455041813","owner":"63805593@N04","secret":"5196cf3a71","server":"8505","farm":9,"title":"Clam Bayou Park","ispublic":1,"isfriend":0,"isfamily":0},{"id":"28786437650","owner":"53096347@N08","secret":"d0cc9c5e95","server":"8358","farm":9,"title":"317\u005c/365","ispublic":1,"isfriend":0,"isfamily":0},{"id":"28455032183","owner":"63805593@N04","secret":"024f90aa2e","server":"8388","farm":9,"title":"Clam Bayou Park","ispublic":1,"isfriend":0,"isfamily":0},{"id":"28455023913","owner":"63805593@N04","secret":"7a49b4c790","server":"8200","farm":9,"title":"Clam Bayou Park","ispublic":1,"isfriend":0,"isfamily":0},{"id":"28967412672","owner":"63805593@N04","secret":"e24e08aa0a","server":"8178","farm":9,"title":"Clam Bayou Park","ispublic":1,"isfriend":0,"isfamily":0},{"id":"29072726585","owner":"63805593@N04","secret":"b0eb22c4c7","server":"8615","farm":9,"title":"Clam Bayou Park","ispublic":1,"isfriend":0,"isfamily":0},{"id":"29072714195","owner":"63805593@N04","secret":"9487a1a875","server":"8118","farm":9,"title":"Clam Bayou Park","ispublic":1,"isfriend":0,"isfamily":0},{"id":"28996267431","owner":"63805593@N04","secret":"db769c8854","server":"8165","farm":9,"title":"Clam Bayou Park","ispublic":1,"isfriend":0,"isfamily":0},{"id":"28786401400","owner":"63805593@N04","secret":"c567144189","server":"8888","farm":9,"title":"Clam Bayou Park","ispublic":1,"isfriend":0,"isfamily":0},{"id":"28454992793","owner":"63805593@N04","secret":"af5db110fe","server":"8297","farm":9,"title":"Clam Bayou Park","ispublic":1,"isfriend":0,"isfamily":0},{"id":"28996261791","owner":"63805593@N04","secret":"3cd2bcbe43","server":"8170","farm":9,"title":"Clam Bayou Park","ispublic":1,"isfriend":0,"isfamily":0},{"id":"29039806076","owner":"63805593@N04","secret":"8d0476f85f","server":"8057","farm":9,"title":"Clam Bayou Park","ispublic":1,"isfriend":0,"isfamily":0},{"id":"28967367682","owner":"63805593@N04","secret":"33bc6678e9","server":"8416","farm":9,"title":"Clam Bayou Park","ispublic":1,"isfriend":0,"isfamily":0}]},"stat":"ok"})
p4
s.