(dp0
S'https://api.flickr.com/services/rest/?per_page=5&format=json&method=flickr.photos.search&tag_mode=all&tags=sunset'
p1
VjsonFlickrApi({"photos":{"page":1,"pages":81203,"perpage":5,"total":"406011","photo":[{"id":"28967074282","owner":"136150352@N06","secret":"1a9d5ec5d5","server":"8471","farm":9,"title":"The field road in the sunset","ispublic":1,"isfriend":0,"isfamily":0},{"id":"29072318305","owner":"64152084@N03","secret":"0c19432086","server":"8599","farm":9,"title":"From Hills To Mountains","ispublic":1,"isfriend":0,"isfamily":0},{"id":"28454553673","owner":"61705719@N08","secret":"f55e15b909","server":"8500","farm":9,"title":"HAHAHA! Made you look!","ispublic":1,"isfriend":0,"isfamily":0},{"id":"28966974862","owner":"61705719@N08","secret":"e4cfde6cc7","server":"8478","farm":9,"title":"Enjoying the sunset","ispublic":1,"isfriend":0,"isfamily":0},{"id":"28786021150","owner":"142985458@N03","secret":"4ca43c38be","server":"8131","farm":9,"title":"When the sunlight paints us gold. #goldenhour #goldenlight #sunset #flower #nature","ispublic":1,"isfriend":0,"isfamily":0}]},"stat":"ok"})
p2
sS'https://api.flickr.com/services/rest/?per_page=50&format=json&method=flickr.photos.search&tag_mode=all&tags=sunset'
p3
VjsonFlickrApi({"photos":{"page":1,"pages":6720,"perpage":50,"total":"335981","photo":[{"id":"29039562686","owner":"35490577@N05","secret":"e3d24a20dc","server":"8295","farm":9,"title":"sunset","ispublic":1,"isfriend":0,"isfamily":0},{"id":"29039532306","owner":"136150352@N06","secret":"2d73e4b1d8","server":"8148","farm":9,"title":"Wildflowers","ispublic":1,"isfriend":0,"isfamily":0},{"id":"28451366304","owner":"44472650@N08","secret":"dce0e4cf6d","server":"8080","farm":9,"title":"IMG_8448","ispublic":1,"isfriend":0,"isfamily":0},{"id":"29072278555","owner":"44472650@N08","secret":"d3f450ee3e","server":"8430","farm":9,"title":"IMG_8446","ispublic":1,"isfriend":0,"isfamily":0},{"id":"29072277055","owner":"44472650@N08","secret":"903a40bc8c","server":"8378","farm":9,"title":"IMG_8444","ispublic":1,"isfriend":0,"isfamily":0},{"id":"28454523423","owner":"44472650@N08","secret":"dfbecd9599","server":"8142","farm":9,"title":"IMG_8426","ispublic":1,"isfriend":0,"isfamily":0},{"id":"28451356254","owner":"44472650@N08","secret":"dba322618d","server":"8170","farm":9,"title":"IMG_8441","ispublic":1,"isfriend":0,"isfamily":0},{"id":"28451353564","owner":"44472650@N08","secret":"43b2b49278","server":"8474","farm":9,"title":"IMG_8440","ispublic":1,"isfriend":0,"isfamily":0},{"id":"28451349134","owner":"44472650@N08","secret":"16eba511bb","server":"8836","farm":9,"title":"IMG_8438","ispublic":1,"isfriend":0,"isfamily":0},{"id":"29039366426","owner":"44472650@N08","secret":"9cdc4d3321","server":"8475","farm":9,"title":"IMG_8435","ispublic":1,"isfriend":0,"isfamily":0},{"id":"28995826051","owner":"44472650@N08","secret":"4278bc567c","server":"8044","farm":9,"title":"IMG_8429","ispublic":1,"isfriend":0,"isfamily":0},{"id":"29039361186","owner":"44472650@N08","secret":"ec4362c8d2","server":"8398","farm":9,"title":"IMG_8428","ispublic":1,"isfriend":0,"isfamily":0},{"id":"29039359206","owner":"44472650@N08","secret":"dced5b3e76","server":"8076","farm":9,"title":"IMG_8427","ispublic":1,"isfriend":0,"isfamily":0},{"id":"28995808051","owner":"44472650@N08","secret":"4a3fdfa53f","server":"8176","farm":9,"title":"IMG_8419","ispublic":1,"isfriend":0,"isfamily":0},{"id":"28454553673","owner":"61705719@N08","secret":"f55e15b909","server":"8500","farm":9,"title":"HAHAHA! Made you look!","ispublic":1,"isfriend":0,"isfamily":0},{"id":"28966974862","owner":"61705719@N08","secret":"e4cfde6cc7","server":"8478","farm":9,"title":"Enjoying the sunset","ispublic":1,"isfriend":0,"isfamily":0},{"id":"28786021150","owner":"142985458@N03","secret":"4ca43c38be","server":"8131","farm":9,"title":"When the sunlight paints us gold. #goldenhour #goldenlight #sunset #flower #nature","ispublic":1,"isfriend":0,"isfamily":0},{"id":"28995843141","owner":"46733531@N02","secret":"9337f2b6e5","server":"8013","farm":9,"title":"Gold in the Sand","ispublic":1,"isfriend":0,"isfamily":0},{"id":"28454492113","owner":"94379915@N08","secret":"1e146a6478","server":"8422","farm":9,"title":"Naxos","ispublic":1,"isfriend":0,"isfamily":0},{"id":"28785964690","owner":"144506732@N07","secret":"8c7a599cb4","server":"8456","farm":9,"title":"Impending","ispublic":1,"isfriend":0,"isfamily":0},{"id":"28785942950","owner":"20908239@N00","secret":"e7cace8d1e","server":"8058","farm":9,"title":"Sunset at Oka river","ispublic":1,"isfriend":0,"isfamily":0},{"id":"28785957030","owner":"144506732@N07","secret":"81f377ec57","server":"8405","farm":9,"title":"Kuhasalo III","ispublic":1,"isfriend":0,"isfamily":0},{"id":"28454478843","owner":"144506732@N07","secret":"3003d629d7","server":"7566","farm":8,"title":"Saline","ispublic":1,"isfriend":0,"isfamily":0},{"id":"29039260926","owner":"93396972@N04","secret":"9174196100","server":"8045","farm":9,"title":"\u005cu039c\u005cu0399\u005cu0398\u005cu03a1\u005cu0391\u005cu0394\u005cu0391\u005cu03a4\u005cu0397\u005cu03a3","ispublic":1,"isfriend":0,"isfamily":0},{"id":"28967074282","owner":"136150352@N06","secret":"1a9d5ec5d5","server":"8471","farm":9,"title":"The field road in the sunset","ispublic":1,"isfriend":0,"isfamily":0},{"id":"29072318305","owner":"64152084@N03","secret":"0c19432086","server":"8599","farm":9,"title":"From Hills To Mountains","ispublic":1,"isfriend":0,"isfamily":0},{"id":"28966931182","owner":"128236009@N07","secret":"17e1765ee9","server":"8554","farm":9,"title":"Times like these","ispublic":1,"isfriend":0,"isfamily":0},{"id":"29072239255","owner":"88518371@N02","secret":"962d852303","server":"8192","farm":9,"title":"Beautiful sunset in Haarlem","ispublic":1,"isfriend":0,"isfamily":0},{"id":"28995435821","owner":"43886575@N08","secret":"3e27a4e596","server":"8056","farm":9,"title":"Elvas-Those Summer Holidays","ispublic":1,"isfriend":0,"isfamily":0},{"id":"28785933500","owner":"65389941@N05","secret":"8ed33bc37d","server":"8195","farm":9,"title":"Sunset in Pergine Valsugana","ispublic":1,"isfriend":0,"isfamily":0},{"id":"28785820500","owner":"34581217@N00","secret":"60414c69ef","server":"8557","farm":9,"title":"2016-08-05 15.46.49","ispublic":1,"isfriend":0,"isfamily":0},{"id":"28785820210","owner":"34581217@N00","secret":"f7b47cea04","server":"8257","farm":9,"title":"2016-08-05 15.46.54","ispublic":1,"isfriend":0,"isfamily":0},{"id":"28785819740","owner":"34581217@N00","secret":"9a5ff6f77f","server":"8044","farm":9,"title":"2016-08-05 15.46.57","ispublic":1,"isfriend":0,"isfamily":0},{"id":"28785819390","owner":"34581217@N00","secret":"2c62491d1f","server":"8524","farm":9,"title":"2016-08-05 15.47.06","ispublic":1,"isfriend":0,"isfamily":0},{"id":"28995705521","owner":"34581217@N00","secret":"88dc7537e6","server":"8495","farm":9,"title":"2016-08-05 15.47.24","ispublic":1,"isfriend":0,"isfamily":0},{"id":"29039225566","owner":"34581217@N00","secret":"5d1abed632","server":"8375","farm":9,"title":"2016-08-05 15.47.38","ispublic":1,"isfriend":0,"isfamily":0},{"id":"28785818280","owner":"34581217@N00","secret":"28fa191ce4","server":"8787","farm":9,"title":"2016-08-05 15.47.43","ispublic":1,"isfriend":0,"isfamily":0},{"id":"28785816690","owner":"34581217@N00","secret":"ff67e49946","server":"8215","farm":9,"title":"2016-08-05 15.48.05","ispublic":1,"isfriend":0,"isfamily":0},{"id":"28995704261","owner":"34581217@N00","secret":"b44d0b8385","server":"8284","farm":9,"title":"2016-08-05 15.47.56","ispublic":1,"isfriend":0,"isfamily":0},{"id":"28785816260","owner":"34581217@N00","secret":"393d960f57","server":"8717","farm":9,"title":"2016-08-05 15.48.13","ispublic":1,"isfriend":0,"isfamily":0},{"id":"29072097555","owner":"34581217@N00","secret":"d52ab5150a","server":"8281","farm":9,"title":"2016-08-05 15.48.07","ispublic":1,"isfriend":0,"isfamily":0},{"id":"28785816080","owner":"34581217@N00","secret":"8e45ac8eae","server":"8629","farm":9,"title":"2016-08-05 15.48.20","ispublic":1,"isfriend":0,"isfamily":0},{"id":"28785815420","owner":"34581217@N00","secret":"92387ee579","server":"8361","farm":9,"title":"2016-08-05 15.48.45","ispublic":1,"isfriend":0,"isfamily":0},{"id":"28785815200","owner":"34581217@N00","secret":"8ff1a46ac1","server":"8538","farm":9,"title":"2016-08-05 15.48.35","ispublic":1,"isfriend":0,"isfamily":0},{"id":"29072097235","owner":"34581217@N00","secret":"7cc5574b8b","server":"8275","farm":9,"title":"2016-08-05 15.48.23","ispublic":1,"isfriend":0,"isfamily":0},{"id":"29072096825","owner":"34581217@N00","secret":"db07340499","server":"8367","farm":9,"title":"2016-08-05 15.49.00","ispublic":1,"isfriend":0,"isfamily":0},{"id":"28785814350","owner":"34581217@N00","secret":"564d2eb5f6","server":"8366","farm":9,"title":"2016-08-05 15.49.08","ispublic":1,"isfriend":0,"isfamily":0},{"id":"28785813640","owner":"34581217@N00","secret":"2ecaa63b42","server":"8492","farm":9,"title":"2016-08-05 15.49.23","ispublic":1,"isfriend":0,"isfamily":0},{"id":"28995702401","owner":"34581217@N00","secret":"906ff5c260","server":"8212","farm":9,"title":"2016-08-05 15.49.16","ispublic":1,"isfriend":0,"isfamily":0},{"id":"29039223066","owner":"34581217@N00","secret":"c2b0ca7f4a","server":"8370","farm":9,"title":"2016-08-05 15.50.32","ispublic":1,"isfriend":0,"isfamily":0}]},"stat":"ok"})
p4
s.